%YAML 1.1
%TAG !u! tag:unity3d.com,2011:
--- !u!29 &1
OcclusionCullingSettings:
  m_ObjectHideFlags: 0
  serializedVersion: 2
  m_OcclusionBakeSettings:
    smallestOccluder: 5
    smallestHole: 0.25
    backfaceThreshold: 100
  m_SceneGUID: 00000000000000000000000000000000
  m_OcclusionCullingData: {fileID: 0}
--- !u!104 &2
RenderSettings:
  m_ObjectHideFlags: 0
  serializedVersion: 9
  m_Fog: 0
  m_FogColor: {r: 0.5, g: 0.5, b: 0.5, a: 1}
  m_FogMode: 3
  m_FogDensity: 0.01
  m_LinearFogStart: 0
  m_LinearFogEnd: 300
  m_AmbientSkyColor: {r: 1, g: 1, b: 1, a: 1}
  m_AmbientEquatorColor: {r: 0.5754717, g: 0.5754717, b: 0.5754717, a: 1}
  m_AmbientGroundColor: {r: 0.047, g: 0.043, b: 0.035, a: 1}
  m_AmbientIntensity: 1
  m_AmbientMode: 1
  m_SubtractiveShadowColor: {r: 0.42, g: 0.478, b: 0.627, a: 1}
  m_SkyboxMaterial: {fileID: 10304, guid: 0000000000000000f000000000000000, type: 0}
  m_HaloStrength: 0.5
  m_FlareStrength: 1
  m_FlareFadeSpeed: 3
  m_HaloTexture: {fileID: 0}
  m_SpotCookie: {fileID: 10001, guid: 0000000000000000e000000000000000, type: 0}
  m_DefaultReflectionMode: 0
  m_DefaultReflectionResolution: 128
  m_ReflectionBounces: 1
  m_ReflectionIntensity: 1
  m_CustomReflection: {fileID: 0}
  m_Sun: {fileID: 0}
  m_IndirectSpecularColor: {r: 0.18028352, g: 0.22571376, b: 0.30692244, a: 1}
  m_UseRadianceAmbientProbe: 0
--- !u!157 &3
LightmapSettings:
  m_ObjectHideFlags: 0
  serializedVersion: 12
  m_GIWorkflowMode: 1
  m_GISettings:
    serializedVersion: 2
    m_BounceScale: 1
    m_IndirectOutputScale: 1
    m_AlbedoBoost: 1
    m_EnvironmentLightingMode: 0
    m_EnableBakedLightmaps: 1
    m_EnableRealtimeLightmaps: 0
  m_LightmapEditorSettings:
    serializedVersion: 12
    m_Resolution: 2
    m_BakeResolution: 40
    m_AtlasSize: 1024
    m_AO: 0
    m_AOMaxDistance: 1
    m_CompAOExponent: 1
    m_CompAOExponentDirect: 0
    m_ExtractAmbientOcclusion: 0
    m_Padding: 2
    m_LightmapParameters: {fileID: 0}
    m_LightmapsBakeMode: 1
    m_TextureCompression: 1
    m_FinalGather: 0
    m_FinalGatherFiltering: 1
    m_FinalGatherRayCount: 256
    m_ReflectionCompression: 2
    m_MixedBakeMode: 2
    m_BakeBackend: 1
    m_PVRSampling: 1
    m_PVRDirectSampleCount: 32
    m_PVRSampleCount: 512
    m_PVRBounces: 2
    m_PVREnvironmentSampleCount: 256
    m_PVREnvironmentReferencePointCount: 2048
    m_PVRFilteringMode: 1
    m_PVRDenoiserTypeDirect: 1
    m_PVRDenoiserTypeIndirect: 1
    m_PVRDenoiserTypeAO: 1
    m_PVRFilterTypeDirect: 0
    m_PVRFilterTypeIndirect: 0
    m_PVRFilterTypeAO: 0
    m_PVREnvironmentMIS: 1
    m_PVRCulling: 1
    m_PVRFilteringGaussRadiusDirect: 1
    m_PVRFilteringGaussRadiusIndirect: 5
    m_PVRFilteringGaussRadiusAO: 2
    m_PVRFilteringAtrousPositionSigmaDirect: 0.5
    m_PVRFilteringAtrousPositionSigmaIndirect: 2
    m_PVRFilteringAtrousPositionSigmaAO: 1
    m_ExportTrainingData: 0
    m_TrainingDataDestination: TrainingData
    m_LightProbeSampleCountMultiplier: 4
  m_LightingDataAsset: {fileID: 0}
  m_LightingSettings: {fileID: 4890085278179872738, guid: 477cc4148fad3449482a3bc3178594e2, type: 2}
--- !u!196 &4
NavMeshSettings:
  serializedVersion: 2
  m_ObjectHideFlags: 0
  m_BuildSettings:
    serializedVersion: 2
    agentTypeID: 0
    agentRadius: 0.5
    agentHeight: 2
    agentSlope: 45
    agentClimb: 0.4
    ledgeDropHeight: 0
    maxJumpAcrossDistance: 0
    minRegionArea: 2
    manualCellSize: 0
    cellSize: 0.16666667
    manualTileSize: 0
    tileSize: 256
    accuratePlacement: 0
    maxJobWorkers: 0
    preserveTilesOutsideBounds: 0
    debug:
      m_Flags: 0
  m_NavMeshData: {fileID: 0}
--- !u!1 &25794322
GameObject:
  m_ObjectHideFlags: 0
  m_CorrespondingSourceObject: {fileID: 0}
  m_PrefabInstance: {fileID: 0}
  m_PrefabAsset: {fileID: 0}
  serializedVersion: 6
  m_Component:
  - component: {fileID: 25794325}
  - component: {fileID: 25794324}
  - component: {fileID: 25794323}
  - component: {fileID: 25794326}
  m_Layer: 0
  m_Name: Main Camera
  m_TagString: MainCamera
  m_Icon: {fileID: 0}
  m_NavMeshLayer: 0
  m_StaticEditorFlags: 0
  m_IsActive: 1
--- !u!81 &25794323
AudioListener:
  m_ObjectHideFlags: 0
  m_CorrespondingSourceObject: {fileID: 0}
  m_PrefabInstance: {fileID: 0}
  m_PrefabAsset: {fileID: 0}
  m_GameObject: {fileID: 25794322}
  m_Enabled: 1
--- !u!20 &25794324
Camera:
  m_ObjectHideFlags: 0
  m_CorrespondingSourceObject: {fileID: 0}
  m_PrefabInstance: {fileID: 0}
  m_PrefabAsset: {fileID: 0}
  m_GameObject: {fileID: 25794322}
  m_Enabled: 1
  serializedVersion: 2
  m_ClearFlags: 1
  m_BackGroundColor: {r: 0.19215687, g: 0.3019608, b: 0.4745098, a: 0}
  m_projectionMatrixMode: 1
  m_GateFitMode: 2
  m_FOVAxisMode: 0
  m_SensorSize: {x: 36, y: 24}
  m_LensShift: {x: 0, y: 0}
  m_FocalLength: 50
  m_NormalizedViewPortRect:
    serializedVersion: 2
    x: 0
    y: 0
    width: 1
    height: 1
  near clip plane: 0.3
  far clip plane: 1000
  field of view: 60
  orthographic: 0
  orthographic size: 5
  m_Depth: -1
  m_CullingMask:
    serializedVersion: 2
    m_Bits: 4294967295
  m_RenderingPath: -1
  m_TargetTexture: {fileID: 0}
  m_TargetDisplay: 0
  m_TargetEye: 3
  m_HDR: 1
  m_AllowMSAA: 1
  m_AllowDynamicResolution: 0
  m_ForceIntoRT: 0
  m_OcclusionCulling: 1
  m_StereoConvergence: 10
  m_StereoSeparation: 0.022
--- !u!4 &25794325
Transform:
  m_ObjectHideFlags: 0
  m_CorrespondingSourceObject: {fileID: 0}
  m_PrefabInstance: {fileID: 0}
  m_PrefabAsset: {fileID: 0}
  m_GameObject: {fileID: 25794322}
  m_LocalRotation: {x: 0, y: 0, z: 0, w: 1}
  m_LocalPosition: {x: 0, y: 2, z: -10}
  m_LocalScale: {x: 1, y: 1, z: 1}
  m_Children: []
  m_Father: {fileID: 0}
  m_RootOrder: 0
  m_LocalEulerAnglesHint: {x: 0, y: 0, z: 0}
--- !u!114 &25794326
MonoBehaviour:
  m_ObjectHideFlags: 0
  m_CorrespondingSourceObject: {fileID: 0}
  m_PrefabInstance: {fileID: 0}
  m_PrefabAsset: {fileID: 0}
  m_GameObject: {fileID: 25794322}
  m_Enabled: 1
  m_EditorHideFlags: 0
  m_Script: {fileID: 11500000, guid: a79441f348de89743a2939f4d699eac1, type: 3}
  m_Name: 
  m_EditorClassIdentifier: 
  m_RenderShadows: 1
  m_RequiresDepthTextureOption: 2
  m_RequiresOpaqueTextureOption: 2
  m_CameraType: 0
  m_Cameras: []
  m_RendererIndex: -1
  m_VolumeLayerMask:
    serializedVersion: 2
    m_Bits: 1
  m_VolumeTrigger: {fileID: 0}
  m_RenderPostProcessing: 0
  m_Antialiasing: 0
  m_AntialiasingQuality: 2
  m_StopNaN: 0
  m_Dithering: 0
  m_ClearDepth: 1
  m_AllowXRRendering: 1
  m_RequiresDepthTexture: 0
  m_RequiresColorTexture: 0
  m_Version: 2
--- !u!108 &240063083 stripped
Light:
  m_CorrespondingSourceObject: {fileID: 7938815323608113183, guid: e460510aeaf8b4bc481eb123dcb0770d, type: 3}
  m_PrefabInstance: {fileID: 7938815323713172084}
  m_PrefabAsset: {fileID: 0}
--- !u!1 &294593814
GameObject:
  m_ObjectHideFlags: 0
  m_CorrespondingSourceObject: {fileID: 0}
  m_PrefabInstance: {fileID: 0}
  m_PrefabAsset: {fileID: 0}
  serializedVersion: 6
  m_Component:
  - component: {fileID: 294593816}
  - component: {fileID: 294593815}
  m_Layer: 0
  m_Name: Directional Light
  m_TagString: Untagged
  m_Icon: {fileID: 0}
  m_NavMeshLayer: 0
  m_StaticEditorFlags: 0
  m_IsActive: 1
--- !u!108 &294593815
Light:
  m_ObjectHideFlags: 0
  m_CorrespondingSourceObject: {fileID: 0}
  m_PrefabInstance: {fileID: 0}
  m_PrefabAsset: {fileID: 0}
  m_GameObject: {fileID: 294593814}
  m_Enabled: 1
  serializedVersion: 10
  m_Type: 1
  m_Shape: 0
  m_Color: {r: 1, g: 1, b: 1, a: 1}
  m_Intensity: 1
  m_Range: 10
  m_SpotAngle: 30
  m_InnerSpotAngle: 21.80208
  m_CookieSize: 10
  m_Shadows:
    m_Type: 2
    m_Resolution: -1
    m_CustomResolution: -1
    m_Strength: 1
    m_Bias: 0.05
    m_NormalBias: 0.4
    m_NearPlane: 0.2
    m_CullingMatrixOverride:
      e00: 1
      e01: 0
      e02: 0
      e03: 0
      e10: 0
      e11: 1
      e12: 0
      e13: 0
      e20: 0
      e21: 0
      e22: 1
      e23: 0
      e30: 0
      e31: 0
      e32: 0
      e33: 1
    m_UseCullingMatrixOverride: 0
  m_Cookie: {fileID: 0}
  m_DrawHalo: 0
  m_Flare: {fileID: 0}
  m_RenderMode: 0
  m_CullingMask:
    serializedVersion: 2
    m_Bits: 4294967295
  m_RenderingLayerMask: 1
  m_Lightmapping: 4
  m_LightShadowCasterMode: 0
  m_AreaSize: {x: 1, y: 1}
  m_BounceIntensity: 1
  m_ColorTemperature: 6570
  m_UseColorTemperature: 0
  m_BoundingSphereOverride: {x: 0, y: 0, z: 0, w: 0}
  m_UseBoundingSphereOverride: 0
  m_UseViewFrustumForShadowCasterCull: 1
  m_ShadowRadius: 0
  m_ShadowAngle: 0
--- !u!4 &294593816
Transform:
  m_ObjectHideFlags: 0
  m_CorrespondingSourceObject: {fileID: 0}
  m_PrefabInstance: {fileID: 0}
  m_PrefabAsset: {fileID: 0}
  m_GameObject: {fileID: 294593814}
  m_LocalRotation: {x: 0.40821788, y: -0.23456968, z: 0.10938163, w: 0.8754261}
  m_LocalPosition: {x: 0, y: 3, z: 0}
  m_LocalScale: {x: 1, y: 1, z: 1}
  m_Children: []
  m_Father: {fileID: 0}
  m_RootOrder: 1
  m_LocalEulerAnglesHint: {x: 50, y: -30, z: 0}
--- !u!108 &516114491 stripped
Light:
  m_CorrespondingSourceObject: {fileID: 7938815323885189711, guid: e460510aeaf8b4bc481eb123dcb0770d, type: 3}
  m_PrefabInstance: {fileID: 7938815323713172084}
  m_PrefabAsset: {fileID: 0}
--- !u!108 &623369559 stripped
Light:
  m_CorrespondingSourceObject: {fileID: 7938815323229007651, guid: e460510aeaf8b4bc481eb123dcb0770d, type: 3}
  m_PrefabInstance: {fileID: 7938815323713172084}
  m_PrefabAsset: {fileID: 0}
--- !u!1 &940049659
GameObject:
  m_ObjectHideFlags: 0
  m_CorrespondingSourceObject: {fileID: 0}
  m_PrefabInstance: {fileID: 0}
  m_PrefabAsset: {fileID: 0}
  serializedVersion: 6
  m_Component:
  - component: {fileID: 940049663}
  - component: {fileID: 940049662}
  - component: {fileID: 940049661}
  - component: {fileID: 940049660}
  m_Layer: 0
  m_Name: GameManager
  m_TagString: Untagged
  m_Icon: {fileID: 0}
  m_NavMeshLayer: 0
  m_StaticEditorFlags: 0
  m_IsActive: 1
--- !u!114 &940049660
MonoBehaviour:
  m_ObjectHideFlags: 0
  m_CorrespondingSourceObject: {fileID: 0}
  m_PrefabInstance: {fileID: 0}
  m_PrefabAsset: {fileID: 0}
  m_GameObject: {fileID: 940049659}
  m_Enabled: 1
  m_EditorHideFlags: 0
  m_Script: {fileID: 11500000, guid: e57f7d152f18a4aeb838da2591e788d7, type: 3}
  m_Name: 
  m_EditorClassIdentifier: 
--- !u!114 &940049661
MonoBehaviour:
  m_ObjectHideFlags: 0
  m_CorrespondingSourceObject: {fileID: 0}
  m_PrefabInstance: {fileID: 0}
  m_PrefabAsset: {fileID: 0}
  m_GameObject: {fileID: 940049659}
  m_Enabled: 1
  m_EditorHideFlags: 0
  m_Script: {fileID: 11500000, guid: 80ce2dfb3421e423d80770796efc60e9, type: 3}
  m_Name: 
  m_EditorClassIdentifier: 
  showPersistentDataPath: 0
  gamePlayer:
    name: 
    id: 0
    levelsCompleted: 0
    totalCoins: 0
    lastPlayedLevel: 0
    handTutorialShown: 0
--- !u!114 &940049662
MonoBehaviour:
  m_ObjectHideFlags: 0
  m_CorrespondingSourceObject: {fileID: 0}
  m_PrefabInstance: {fileID: 0}
  m_PrefabAsset: {fileID: 0}
  m_GameObject: {fileID: 940049659}
  m_Enabled: 1
  m_EditorHideFlags: 0
  m_Script: {fileID: 11500000, guid: 492f87282a7304979a18bd1b50e0a528, type: 3}
  m_Name: 
  m_EditorClassIdentifier: 
  tutorialShown: 0
  levelcount: 0
  totalScenes: 0
  levelProgressionCount: 0
  dataManager: {fileID: 940049661}
  gamePlayer:
    name: 
    id: 0
    levelsCompleted: 0
    totalCoins: 0
    lastPlayedLevel: 0
    handTutorialShown: 0
  dataSheet: {fileID: 11400000, guid: f5700e00c94bd429e866050345a7e1dc, type: 2}
--- !u!4 &940049663
Transform:
  m_ObjectHideFlags: 0
  m_CorrespondingSourceObject: {fileID: 0}
  m_PrefabInstance: {fileID: 0}
  m_PrefabAsset: {fileID: 0}
  m_GameObject: {fileID: 940049659}
  m_LocalRotation: {x: 0, y: 0, z: 0, w: 1}
  m_LocalPosition: {x: 0, y: 0, z: 0}
  m_LocalScale: {x: 1, y: 1, z: 1}
  m_Children: []
  m_Father: {fileID: 0}
  m_RootOrder: 3
  m_LocalEulerAnglesHint: {x: 0, y: 0, z: 0}
--- !u!108 &1237380410 stripped
Light:
  m_CorrespondingSourceObject: {fileID: 7938815324640059214, guid: e460510aeaf8b4bc481eb123dcb0770d, type: 3}
  m_PrefabInstance: {fileID: 7938815323713172084}
  m_PrefabAsset: {fileID: 0}
--- !u!108 &1355416041 stripped
Light:
  m_CorrespondingSourceObject: {fileID: 7938815325059150749, guid: e460510aeaf8b4bc481eb123dcb0770d, type: 3}
  m_PrefabInstance: {fileID: 7938815323713172084}
  m_PrefabAsset: {fileID: 0}
--- !u!23 &1813255429049771268 stripped
MeshRenderer:
  m_CorrespondingSourceObject: {fileID: 8576450512324826992, guid: e460510aeaf8b4bc481eb123dcb0770d, type: 3}
  m_PrefabInstance: {fileID: 7938815323713172084}
  m_PrefabAsset: {fileID: 0}
--- !u!23 &2051398245415368411 stripped
MeshRenderer:
  m_CorrespondingSourceObject: {fileID: 8238299419515962543, guid: e460510aeaf8b4bc481eb123dcb0770d, type: 3}
  m_PrefabInstance: {fileID: 7938815323713172084}
  m_PrefabAsset: {fileID: 0}
--- !u!23 &2838788500788958733 stripped
MeshRenderer:
  m_CorrespondingSourceObject: {fileID: 5280806328579957881, guid: e460510aeaf8b4bc481eb123dcb0770d, type: 3}
  m_PrefabInstance: {fileID: 7938815323713172084}
  m_PrefabAsset: {fileID: 0}
--- !u!23 &7469307144613057876 stripped
MeshRenderer:
  m_CorrespondingSourceObject: {fileID: 685700803984041760, guid: e460510aeaf8b4bc481eb123dcb0770d, type: 3}
  m_PrefabInstance: {fileID: 7938815323713172084}
  m_PrefabAsset: {fileID: 0}
--- !u!1001 &7938815323713172084
PrefabInstance:
  m_ObjectHideFlags: 0
  serializedVersion: 2
  m_Modification:
    m_TransformParent: {fileID: 0}
    m_Modifications:
    - target: {fileID: 685700803984041760, guid: e460510aeaf8b4bc481eb123dcb0770d, type: 3}
      propertyPath: m_Materials.Array.data[0]
      value: 
      objectReference: {fileID: 2100000, guid: 26a2fc441fb3e4f42a0abb859f7cb998, type: 2}
    - target: {fileID: 1238467930211870419, guid: e460510aeaf8b4bc481eb123dcb0770d, type: 3}
      propertyPath: m_TagString
      value: Untagged
      objectReference: {fileID: 0}
    - target: {fileID: 1519357990853294161, guid: e460510aeaf8b4bc481eb123dcb0770d, type: 3}
      propertyPath: m_Materials.Array.data[0]
      value: 
      objectReference: {fileID: 2100000, guid: 26a2fc441fb3e4f42a0abb859f7cb998, type: 2}
    - target: {fileID: 5280806328579957881, guid: e460510aeaf8b4bc481eb123dcb0770d, type: 3}
      propertyPath: m_Materials.Array.data[0]
      value: 
      objectReference: {fileID: 2100000, guid: 26a2fc441fb3e4f42a0abb859f7cb998, type: 2}
    - target: {fileID: 7128423777298317482, guid: e460510aeaf8b4bc481eb123dcb0770d, type: 3}
      propertyPath: m_Name
      value: Environment
      objectReference: {fileID: 0}
    - target: {fileID: 7613035024146815504, guid: e460510aeaf8b4bc481eb123dcb0770d, type: 3}
      propertyPath: m_RootOrder
      value: 2
      objectReference: {fileID: 0}
    - target: {fileID: 7613035024146815504, guid: e460510aeaf8b4bc481eb123dcb0770d, type: 3}
      propertyPath: m_LocalPosition.x
      value: -0
      objectReference: {fileID: 0}
    - target: {fileID: 7613035024146815504, guid: e460510aeaf8b4bc481eb123dcb0770d, type: 3}
      propertyPath: m_LocalPosition.y
      value: 0.1
      objectReference: {fileID: 0}
    - target: {fileID: 7613035024146815504, guid: e460510aeaf8b4bc481eb123dcb0770d, type: 3}
      propertyPath: m_LocalPosition.z
      value: -0.5
      objectReference: {fileID: 0}
    - target: {fileID: 7613035024146815504, guid: e460510aeaf8b4bc481eb123dcb0770d, type: 3}
      propertyPath: m_LocalRotation.w
      value: 0
      objectReference: {fileID: 0}
    - target: {fileID: 7613035024146815504, guid: e460510aeaf8b4bc481eb123dcb0770d, type: 3}
      propertyPath: m_LocalRotation.x
      value: 0
      objectReference: {fileID: 0}
    - target: {fileID: 7613035024146815504, guid: e460510aeaf8b4bc481eb123dcb0770d, type: 3}
      propertyPath: m_LocalRotation.y
      value: 1
      objectReference: {fileID: 0}
    - target: {fileID: 7613035024146815504, guid: e460510aeaf8b4bc481eb123dcb0770d, type: 3}
      propertyPath: m_LocalRotation.z
      value: 0
      objectReference: {fileID: 0}
    - target: {fileID: 7613035024146815504, guid: e460510aeaf8b4bc481eb123dcb0770d, type: 3}
      propertyPath: m_LocalEulerAnglesHint.x
      value: 0
      objectReference: {fileID: 0}
    - target: {fileID: 7613035024146815504, guid: e460510aeaf8b4bc481eb123dcb0770d, type: 3}
      propertyPath: m_LocalEulerAnglesHint.y
      value: 180
      objectReference: {fileID: 0}
    - target: {fileID: 7613035024146815504, guid: e460510aeaf8b4bc481eb123dcb0770d, type: 3}
      propertyPath: m_LocalEulerAnglesHint.z
      value: 0
      objectReference: {fileID: 0}
    - target: {fileID: 7938815323229007651, guid: e460510aeaf8b4bc481eb123dcb0770d, type: 3}
      propertyPath: m_Shadows.m_Type
      value: 2
      objectReference: {fileID: 0}
    - target: {fileID: 7938815323229007651, guid: e460510aeaf8b4bc481eb123dcb0770d, type: 3}
      propertyPath: m_CullingMask.m_Bits
      value: 1
      objectReference: {fileID: 0}
    - target: {fileID: 7938815323608113183, guid: e460510aeaf8b4bc481eb123dcb0770d, type: 3}
      propertyPath: m_Shadows.m_Type
      value: 2
      objectReference: {fileID: 0}
    - target: {fileID: 7938815323608113183, guid: e460510aeaf8b4bc481eb123dcb0770d, type: 3}
      propertyPath: m_CullingMask.m_Bits
      value: 1
      objectReference: {fileID: 0}
    - target: {fileID: 7938815323696643559, guid: e460510aeaf8b4bc481eb123dcb0770d, type: 3}
      propertyPath: m_Enabled
      value: 0
      objectReference: {fileID: 0}
    - target: {fileID: 7938815323696643566, guid: e460510aeaf8b4bc481eb123dcb0770d, type: 3}
      propertyPath: redLight
      value: 
      objectReference: {fileID: 2100000, guid: 03ae149a4c73b48d8ada001895a29964, type: 2}
    - target: {fileID: 7938815323696643566, guid: e460510aeaf8b4bc481eb123dcb0770d, type: 3}
      propertyPath: greenLight
      value: 
      objectReference: {fileID: 2100000, guid: cf39a05cc4f61404292e740d3f9b15a5, type: 2}
    - target: {fileID: 7938815323696643566, guid: e460510aeaf8b4bc481eb123dcb0770d, type: 3}
      propertyPath: whiteLight
      value: 
      objectReference: {fileID: 2100000, guid: 26a2fc441fb3e4f42a0abb859f7cb998, type: 2}
    - target: {fileID: 7938815323696643566, guid: e460510aeaf8b4bc481eb123dcb0770d, type: 3}
      propertyPath: lights.Array.size
      value: 5
      objectReference: {fileID: 0}
    - target: {fileID: 7938815323696643566, guid: e460510aeaf8b4bc481eb123dcb0770d, type: 3}
      propertyPath: lights.Array.data[0]
      value: 
      objectReference: {fileID: 516114491}
    - target: {fileID: 7938815323696643566, guid: e460510aeaf8b4bc481eb123dcb0770d, type: 3}
      propertyPath: lights.Array.data[1]
      value: 
      objectReference: {fileID: 240063083}
    - target: {fileID: 7938815323696643566, guid: e460510aeaf8b4bc481eb123dcb0770d, type: 3}
      propertyPath: lights.Array.data[2]
      value: 
      objectReference: {fileID: 1355416041}
    - target: {fileID: 7938815323696643566, guid: e460510aeaf8b4bc481eb123dcb0770d, type: 3}
      propertyPath: lights.Array.data[3]
      value: 
      objectReference: {fileID: 623369559}
    - target: {fileID: 7938815323696643566, guid: e460510aeaf8b4bc481eb123dcb0770d, type: 3}
      propertyPath: lights.Array.data[4]
      value: 
      objectReference: {fileID: 1237380410}
    - target: {fileID: 7938815323696643566, guid: e460510aeaf8b4bc481eb123dcb0770d, type: 3}
      propertyPath: lightBodies.Array.size
      value: 5
      objectReference: {fileID: 0}
    - target: {fileID: 7938815323696643566, guid: e460510aeaf8b4bc481eb123dcb0770d, type: 3}
      propertyPath: lightBodies.Array.data[0]
      value: 
      objectReference: {fileID: 1813255429049771268}
    - target: {fileID: 7938815323696643566, guid: e460510aeaf8b4bc481eb123dcb0770d, type: 3}
      propertyPath: lightBodies.Array.data[1]
      value: 
      objectReference: {fileID: 8879284766389553701}
    - target: {fileID: 7938815323696643566, guid: e460510aeaf8b4bc481eb123dcb0770d, type: 3}
      propertyPath: lightBodies.Array.data[2]
      value: 
      objectReference: {fileID: 2051398245415368411}
    - target: {fileID: 7938815323696643566, guid: e460510aeaf8b4bc481eb123dcb0770d, type: 3}
      propertyPath: lightBodies.Array.data[3]
      value: 
      objectReference: {fileID: 2838788500788958733}
    - target: {fileID: 7938815323696643566, guid: e460510aeaf8b4bc481eb123dcb0770d, type: 3}
      propertyPath: lightBodies.Array.data[4]
      value: 
      objectReference: {fileID: 7469307144613057876}
    - target: {fileID: 7938815323885189711, guid: e460510aeaf8b4bc481eb123dcb0770d, type: 3}
      propertyPath: m_Shadows.m_Type
      value: 2
      objectReference: {fileID: 0}
    - target: {fileID: 7938815323885189711, guid: e460510aeaf8b4bc481eb123dcb0770d, type: 3}
      propertyPath: m_CullingMask.m_Bits
      value: 1
      objectReference: {fileID: 0}
    - target: {fileID: 7938815324640059214, guid: e460510aeaf8b4bc481eb123dcb0770d, type: 3}
      propertyPath: m_Shadows.m_Type
      value: 2
      objectReference: {fileID: 0}
    - target: {fileID: 7938815324640059214, guid: e460510aeaf8b4bc481eb123dcb0770d, type: 3}
      propertyPath: m_CullingMask.m_Bits
      value: 1
      objectReference: {fileID: 0}
    - target: {fileID: 7938815325059150749, guid: e460510aeaf8b4bc481eb123dcb0770d, type: 3}
      propertyPath: m_Shadows.m_Type
      value: 2
      objectReference: {fileID: 0}
    - target: {fileID: 7938815325059150749, guid: e460510aeaf8b4bc481eb123dcb0770d, type: 3}
      propertyPath: m_CullingMask.m_Bits
      value: 1
      objectReference: {fileID: 0}
    - target: {fileID: 8125420687406426470, guid: e460510aeaf8b4bc481eb123dcb0770d, type: 3}
      propertyPath: m_Materials.Array.data[0]
      value: 
      objectReference: {fileID: 2100000, guid: 378a33c67c3494d0281338ddb0d18c96, type: 2}
    - target: {fileID: 8238299419515962543, guid: e460510aeaf8b4bc481eb123dcb0770d, type: 3}
      propertyPath: m_Materials.Array.data[0]
      value: 
      objectReference: {fileID: 2100000, guid: 26a2fc441fb3e4f42a0abb859f7cb998, type: 2}
    - target: {fileID: 8576450512324826992, guid: e460510aeaf8b4bc481eb123dcb0770d, type: 3}
      propertyPath: m_Materials.Array.data[0]
      value: 
      objectReference: {fileID: 2100000, guid: 26a2fc441fb3e4f42a0abb859f7cb998, type: 2}
    m_RemovedComponents: []
  m_SourcePrefab: {fileID: 100100000, guid: e460510aeaf8b4bc481eb123dcb0770d, type: 3}
--- !u!23 &8879284766389553701 stripped
MeshRenderer:
  m_CorrespondingSourceObject: {fileID: 1519357990853294161, guid: e460510aeaf8b4bc481eb123dcb0770d, type: 3}
  m_PrefabInstance: {fileID: 7938815323713172084}
  m_PrefabAsset: {fileID: 0}
